simulation/qsim/Final.msim.vcd
$comment
	File created using the following command:
		vcd file Final.msim.vcd -direction
$end
$date
	Sun Jun 16 14:19:49 2024
$end
$version
	ModelSim Version 10.1d
$end
$timescale
	1ps
$end
$scope module Block1_vlg_vec_tst $end
$var reg 1 ! iBTN $end
$var reg 1 " iCLK $end
$var reg 1 # iRST_N $end
$var reg 1 $ start $end
$var wire 1 % LCD_DATA [7] $end
$var wire 1 & LCD_DATA [6] $end
$var wire 1 ' LCD_DATA [5] $end
$var wire 1 ( LCD_DATA [4] $end
$var wire 1 ) LCD_DATA [3] $end
$var wire 1 * LCD_DATA [2] $end
$var wire 1 + LCD_DATA [1] $end
$var wire 1 , LCD_DATA [0] $end
$var wire 1 - LCD_EN $end
$var wire 1 . LCD_ON $end
$var wire 1 / LCD_RS $end
$var wire 1 0 LCD_RW $end
$var wire 1 1 sampler $end
$scope module i1 $end
$var wire 1 2 gnd $end
$var wire 1 3 vcc $end
$var wire 1 4 unknown $end
$var tri1 1 5 devclrn $end
$var tri1 1 6 devpor $end
$var tri1 1 7 devoe $end
$var wire 1 8 LCD_RW~output_o $end
$var wire 1 9 LCD_EN~output_o $end
$var wire 1 : LCD_ON~output_o $end
$var wire 1 ; LCD_RS~output_o $end
$var wire 1 < LCD_DATA[7]~output_o $end
$var wire 1 = LCD_DATA[6]~output_o $end
$var wire 1 > LCD_DATA[5]~output_o $end
$var wire 1 ? LCD_DATA[4]~output_o $end
$var wire 1 @ LCD_DATA[3]~output_o $end
$var wire 1 A LCD_DATA[2]~output_o $end
$var wire 1 B LCD_DATA[1]~output_o $end
$var wire 1 C LCD_DATA[0]~output_o $end
$var wire 1 D iCLK~input_o $end
$var wire 1 E iCLK~inputclkctrl_outclk $end
$var wire 1 F inst|u0|ST~14_combout $end
$var wire 1 G iRST_N~input_o $end
$var wire 1 H inst|u0|oDone~0_combout $end
$var wire 1 I inst|u0|oDone~1_combout $end
$var wire 1 J inst|u0|oDone~q $end
$var wire 1 K inst|pause~0_combout $end
$var wire 1 L iBTN~input_o $end
$var wire 1 M inst|btn_pressed~0_combout $end
$var wire 1 N start~input_o $end
$var wire 1 O inst|start_stop_pressed~0_combout $end
$var wire 1 P inst|start_stop_pressed~q $end
$var wire 1 Q inst|running~0_combout $end
$var wire 1 R inst|running~q $end
$var wire 1 S inst|btn_pressed~q $end
$var wire 1 T inst|success_score[1]~7_combout $end
$var wire 1 U inst|pause~q $end
$var wire 1 V inst|show_message~q $end
$var wire 1 W inst|mDLY[0]~13_combout $end
$var wire 1 X inst|mDLY[12]~15_combout $end
$var wire 1 Y inst|mDLY[0]~14 $end
$var wire 1 Z inst|mDLY[1]~16_combout $end
$var wire 1 [ inst|mDLY[1]~17 $end
$var wire 1 \ inst|mDLY[2]~18_combout $end
$var wire 1 ] inst|mDLY[2]~19 $end
$var wire 1 ^ inst|mDLY[3]~20_combout $end
$var wire 1 _ inst|mDLY[3]~21 $end
$var wire 1 ` inst|mDLY[4]~22_combout $end
$var wire 1 a inst|mDLY[4]~23 $end
$var wire 1 b inst|mDLY[5]~24_combout $end
$var wire 1 c inst|mDLY[5]~25 $end
$var wire 1 d inst|mDLY[6]~26_combout $end
$var wire 1 e inst|mDLY[6]~27 $end
$var wire 1 f inst|mDLY[7]~28_combout $end
$var wire 1 g inst|LessThan0~1_combout $end
$var wire 1 h inst|mDLY[7]~29 $end
$var wire 1 i inst|mDLY[8]~30_combout $end
$var wire 1 j inst|mDLY[8]~31 $end
$var wire 1 k inst|mDLY[9]~32_combout $end
$var wire 1 l inst|mDLY[9]~33 $end
$var wire 1 m inst|mDLY[10]~34_combout $end
$var wire 1 n inst|mDLY[10]~35 $end
$var wire 1 o inst|mDLY[11]~36_combout $end
$var wire 1 p inst|mDLY[11]~37 $end
$var wire 1 q inst|mDLY[12]~38_combout $end
$var wire 1 r inst|LessThan0~0_combout $end
$var wire 1 s inst|LessThan0~2_combout $end
$var wire 1 t inst|LessThan0~3_combout $end
$var wire 1 u inst|LUT_INDEX[0]~0_combout $end
$var wire 1 v inst|Add3~0_combout $end
$var wire 1 w inst|Add3~2_combout $end
$var wire 1 x inst|mLCD_ST~24_combout $end
$var wire 1 y inst|mLCD_ST.000010~q $end
$var wire 1 z inst|mLCD_ST~22_combout $end
$var wire 1 { inst|mLCD_ST~20_combout $end
$var wire 1 | inst|mLCD_ST.000011~q $end
$var wire 1 } inst|LUT_INDEX[0]~1_combout $end
$var wire 1 ~ inst|Add3~1 $end
$var wire 1 !! inst|Add3~3_combout $end
$var wire 1 "! inst|Add3~5_combout $end
$var wire 1 #! inst|Add3~4 $end
$var wire 1 $! inst|Add3~6_combout $end
$var wire 1 %! inst|Add3~8_combout $end
$var wire 1 &! inst|Add3~7 $end
$var wire 1 '! inst|Add3~9_combout $end
$var wire 1 (! inst|Add3~11_combout $end
$var wire 1 )! inst|Add3~10 $end
$var wire 1 *! inst|Add3~12_combout $end
$var wire 1 +! inst|Add3~16_combout $end
$var wire 1 ,! inst|Add3~13 $end
$var wire 1 -! inst|Add3~14_combout $end
$var wire 1 .! inst|LUT_INDEX[5]~2_combout $end
$var wire 1 /! inst|LUT_INDEX[5]~3_combout $end
$var wire 1 0! inst|LessThan1~0_combout $end
$var wire 1 1! inst|LessThan1~1_combout $end
$var wire 1 2! inst|mLCD_ST~18_combout $end
$var wire 1 3! inst|mLCD_ST~19_combout $end
$var wire 1 4! inst|mLCD_ST.000000~q $end
$var wire 1 5! inst|mLCD_ST~23_combout $end
$var wire 1 6! inst|mLCD_ST.000001~q $end
$var wire 1 7! inst|mLCD_ST~21_combout $end
$var wire 1 8! inst|mLCD_Start~0_combout $end
$var wire 1 9! inst|mLCD_Start~1_combout $end
$var wire 1 :! inst|mLCD_Start~q $end
$var wire 1 ;! inst|u0|preStart~feeder_combout $end
$var wire 1 <! inst|u0|preStart~q $end
$var wire 1 =! inst|u0|mStart~0_combout $end
$var wire 1 >! inst|u0|mStart~q $end
$var wire 1 ?! inst|u0|ST.11~q $end
$var wire 1 @! inst|u0|ST.00~0_combout $end
$var wire 1 A! inst|u0|ST.00~q $end
$var wire 1 B! inst|u0|ST.01~0_combout $end
$var wire 1 C! inst|u0|ST.01~q $end
$var wire 1 D! inst|u0|Selector4~0_combout $end
$var wire 1 E! inst|u0|Selector2~1_combout $end
$var wire 1 F! inst|u0|Add0~0_combout $end
$var wire 1 G! inst|u0|Selector5~0_combout $end
$var wire 1 H! inst|u0|Selector8~0_combout $end
$var wire 1 I! inst|u0|Add0~1 $end
$var wire 1 J! inst|u0|Add0~2_combout $end
$var wire 1 K! inst|u0|Selector7~0_combout $end
$var wire 1 L! inst|u0|Add0~3 $end
$var wire 1 M! inst|u0|Add0~4_combout $end
$var wire 1 N! inst|u0|Selector6~0_combout $end
$var wire 1 O! inst|u0|Add0~5 $end
$var wire 1 P! inst|u0|Add0~6_combout $end
$var wire 1 Q! inst|u0|Selector5~1_combout $end
$var wire 1 R! inst|u0|Add0~7 $end
$var wire 1 S! inst|u0|Add0~8_combout $end
$var wire 1 T! inst|u0|Selector4~1_combout $end
$var wire 1 U! inst|u0|Selector2~0_combout $end
$var wire 1 V! inst|u0|ST.10~q $end
$var wire 1 W! inst|u0|Selector3~0_combout $end
$var wire 1 X! inst|u0|LCD_EN~q $end
$var wire 1 Y! inst|anim_index[0]~5_combout $end
$var wire 1 Z! inst|anim_index[4]~10_combout $end
$var wire 1 [! inst|LessThan2~0_combout $end
$var wire 1 \! inst|anim_index[4]~11_combout $end
$var wire 1 ]! inst|anim_index[4]~9_combout $end
$var wire 1 ^! inst|anim_index[4]~12_combout $end
$var wire 1 _! inst|anim_index[0]~6 $end
$var wire 1 `! inst|anim_index[1]~8 $end
$var wire 1 a! inst|anim_index[2]~13_combout $end
$var wire 1 b! inst|anim_index[2]~14 $end
$var wire 1 c! inst|anim_index[3]~15_combout $end
$var wire 1 d! inst|anim_index[3]~16 $end
$var wire 1 e! inst|anim_index[4]~17_combout $end
$var wire 1 f! inst|direction~0_combout $end
$var wire 1 g! inst|direction~1_combout $end
$var wire 1 h! inst|direction~2_combout $end
$var wire 1 i! inst|direction~q $end
$var wire 1 j! inst|anim_index[1]~7_combout $end
$var wire 1 k! inst|Equal11~0_combout $end
$var wire 1 l! inst|Equal7~0_combout $end
$var wire 1 m! inst|success_score[0]~23_combout $end
$var wire 1 n! inst|success_score[1]~8_combout $end
$var wire 1 o! inst|success_score[7]~16_combout $end
$var wire 1 p! inst|success_score[1]~9 $end
$var wire 1 q! inst|success_score[2]~10_combout $end
$var wire 1 r! inst|success_score[2]~11 $end
$var wire 1 s! inst|success_score[3]~12_combout $end
$var wire 1 t! inst|success_score[3]~13 $end
$var wire 1 u! inst|success_score[4]~14_combout $end
$var wire 1 v! inst|success_score[4]~15 $end
$var wire 1 w! inst|success_score[5]~17_combout $end
$var wire 1 x! inst|fail_score[0]~22_combout $end
$var wire 1 y! inst|fail_score[1]~7_combout $end
$var wire 1 z! inst|fail_score[7]~13_combout $end
$var wire 1 {! inst|fail_score[1]~8 $end
$var wire 1 |! inst|fail_score[2]~9_combout $end
$var wire 1 }! inst|fail_score[2]~10 $end
$var wire 1 ~! inst|fail_score[3]~11_combout $end
$var wire 1 !" inst|always1~1_combout $end
$var wire 1 "" inst|fail_score[3]~12 $end
$var wire 1 #" inst|fail_score[4]~14_combout $end
$var wire 1 $" inst|fail_score[4]~15 $end
$var wire 1 %" inst|fail_score[5]~16_combout $end
$var wire 1 &" inst|fail_score[5]~17 $end
$var wire 1 '" inst|fail_score[6]~18_combout $end
$var wire 1 (" inst|fail_score[6]~19 $end
$var wire 1 )" inst|fail_score[7]~20_combout $end
$var wire 1 *" inst|always1~3_combout $end
$var wire 1 +" inst|always1~0_combout $end
$var wire 1 ," inst|success_score[5]~18 $end
$var wire 1 -" inst|success_score[6]~19_combout $end
$var wire 1 ." inst|success_score[6]~20 $end
$var wire 1 /" inst|success_score[7]~21_combout $end
$var wire 1 0" inst|always1~2_combout $end
$var wire 1 1" inst|always1~4_combout $end
$var wire 1 2" inst|LUT_DATA~3_combout $end
$var wire 1 3" inst|LUT_DATA~5_combout $end
$var wire 1 4" inst|mLCD_DATA~2_combout $end
$var wire 1 5" inst|LUT_DATA~2_combout $end
$var wire 1 6" inst|Decoder0~3_combout $end
$var wire 1 7" inst|WideOr17~0_combout $end
$var wire 1 8" inst|LUT_DATA~4_combout $end
$var wire 1 9" inst|mLCD_RS~0_combout $end
$var wire 1 :" inst|mLCD_DATA~3_combout $end
$var wire 1 ;" inst|mLCD_RS~q $end
$var wire 1 <" inst|LUT_DATA~12_combout $end
$var wire 1 =" inst|Mux0~17_combout $end
$var wire 1 >" inst|Mux0~16_combout $end
$var wire 1 ?" inst|Mux0~28_combout $end
$var wire 1 @" inst|Mux0~32_combout $end
$var wire 1 A" inst|Mux0~33_combout $end
$var wire 1 B" inst|Mux0~29_combout $end
$var wire 1 C" inst|Mux0~18_combout $end
$var wire 1 D" inst|mLCD_DATA~5_combout $end
$var wire 1 E" inst|mLCD_DATA~4_combout $end
$var wire 1 F" inst|Mux0~11_combout $end
$var wire 1 G" inst|Mux0~12_combout $end
$var wire 1 H" inst|Equal4~0_combout $end
$var wire 1 I" inst|Equal4~1_combout $end
$var wire 1 J" inst|Equal6~0_combout $end
$var wire 1 K" inst|Mux0~10_combout $end
$var wire 1 L" inst|Mux0~13_combout $end
$var wire 1 M" inst|LUT_DATA~6_combout $end
$var wire 1 N" inst|Mux0~14_combout $end
$var wire 1 O" inst|Mux0~15_combout $end
$var wire 1 P" inst|Equal1~0_combout $end
$var wire 1 Q" inst|LUT_DATA~7_combout $end
$var wire 1 R" inst|LUT_DATA~9_combout $end
$var wire 1 S" inst|Equal8~0_combout $end
$var wire 1 T" inst|Equal8~1_combout $end
$var wire 1 U" inst|LUT_DATA~8_combout $end
$var wire 1 V" inst|LUT_DATA~10_combout $end
$var wire 1 W" inst|LUT_DATA~11_combout $end
$var wire 1 X" inst|mLCD_DATA~6_combout $end
$var wire 1 Y" inst|WideOr0~0_combout $end
$var wire 1 Z" inst|mLCD_DATA~8_combout $end
$var wire 1 [" inst|success_flag~0_combout $end
$var wire 1 \" inst|success_flag~q $end
$var wire 1 ]" inst|Decoder0~2_combout $end
$var wire 1 ^" inst|Selector4~26_combout $end
$var wire 1 _" inst|Selector4~4_combout $end
$var wire 1 `" inst|Selector4~8_combout $end
$var wire 1 a" inst|Selector4~6_combout $end
$var wire 1 b" inst|Selector4~5_combout $end
$var wire 1 c" inst|Selector4~7_combout $end
$var wire 1 d" inst|Selector4~9_combout $end
$var wire 1 e" inst|Selector4~10_combout $end
$var wire 1 f" inst|mLCD_DATA~9_combout $end
$var wire 1 g" inst|Mux0~21_combout $end
$var wire 1 h" inst|Mux0~19_combout $end
$var wire 1 i" inst|Mux0~20_combout $end
$var wire 1 j" inst|Mux0~30_combout $end
$var wire 1 k" inst|Mux0~31_combout $end
$var wire 1 l" inst|mLCD_DATA~7_combout $end
$var wire 1 m" inst|mLCD_DATA~10_combout $end
$var wire 1 n" inst|LUT_DATA~16_combout $end
$var wire 1 o" inst|LUT_DATA~15_combout $end
$var wire 1 p" inst|LUT_DATA~14_combout $end
$var wire 1 q" inst|LUT_DATA~17_combout $end
$var wire 1 r" inst|Mux2~18_combout $end
$var wire 1 s" inst|Mux2~19_combout $end
$var wire 1 t" inst|Mux2~17_combout $end
$var wire 1 u" inst|Mux2~8_combout $end
$var wire 1 v" inst|LUT_DATA~13_combout $end
$var wire 1 w" inst|Mux2~9_combout $end
$var wire 1 x" inst|LUT_DATA~18_combout $end
$var wire 1 y" inst|Mux2~10_combout $end
$var wire 1 z" inst|Mux2~14_combout $end
$var wire 1 {" inst|Mux2~15_combout $end
$var wire 1 |" inst|Mux2~12_combout $end
$var wire 1 }" inst|Mux2~11_combout $end
$var wire 1 ~" inst|Mux2~13_combout $end
$var wire 1 !# inst|Mux2~16_combout $end
$var wire 1 "# inst|LUT_DATA~19_combout $end
$var wire 1 ## inst|mLCD_DATA~11_combout $end
$var wire 1 $# inst|WideOr2~0_combout $end
$var wire 1 %# inst|mLCD_DATA~12_combout $end
$var wire 1 &# inst|Mux0~22_combout $end
$var wire 1 '# inst|LUT_DATA~26_combout $end
$var wire 1 (# inst|LUT_DATA~20_combout $end
$var wire 1 )# inst|LUT_DATA~21_combout $end
$var wire 1 *# inst|Selector4~11_combout $end
$var wire 1 +# inst|LUT_DATA~22_combout $end
$var wire 1 ,# inst|LUT_DATA~23_combout $end
$var wire 1 -# inst|LUT_DATA~38_combout $end
$var wire 1 .# inst|LUT_DATA~39_combout $end
$var wire 1 /# inst|LUT_DATA~24_combout $end
$var wire 1 0# inst|LUT_DATA~25_combout $end
$var wire 1 1# inst|LUT_DATA~27_combout $end
$var wire 1 2# inst|mLCD_DATA~13_combout $end
$var wire 1 3# inst|LUT_DATA~30_combout $end
$var wire 1 4# inst|Selector4~12_combout $end
$var wire 1 5# inst|LUT_DATA~31_combout $end
$var wire 1 6# inst|LUT_DATA~32_combout $end
$var wire 1 7# inst|LUT_DATA~33_combout $end
$var wire 1 8# inst|LUT_DATA~28_combout $end
$var wire 1 9# inst|LUT_DATA~29_combout $end
$var wire 1 :# inst|LUT_DATA~34_combout $end
$var wire 1 ;# inst|mLCD_DATA~21_combout $end
$var wire 1 <# inst|WideOr18~0_combout $end
$var wire 1 =# inst|WideOr3~0_combout $end
$var wire 1 ># inst|mLCD_DATA~15_combout $end
$var wire 1 ?# inst|Selector4~17_combout $end
$var wire 1 @# inst|Selector4~16_combout $end
$var wire 1 A# inst|Selector4~14_combout $end
$var wire 1 B# inst|Selector4~15_combout $end
$var wire 1 C# inst|Selector7~0_combout $end
$var wire 1 D# inst|Selector4~13_combout $end
$var wire 1 E# inst|Selector7~1_combout $end
$var wire 1 F# inst|mLCD_DATA~14_combout $end
$var wire 1 G# inst|mLCD_DATA~16_combout $end
$var wire 1 H# inst|Mux0~25_combout $end
$var wire 1 I# inst|Mux0~26_combout $end
$var wire 1 J# inst|Mux0~23_combout $end
$var wire 1 K# inst|Mux0~24_combout $end
$var wire 1 L# inst|Mux0~27_combout $end
$var wire 1 M# inst|WideOr4~0_combout $end
$var wire 1 N# inst|mLCD_DATA~17_combout $end
$var wire 1 O# inst|Selector4~18_combout $end
$var wire 1 P# inst|Selector4~22_combout $end
$var wire 1 Q# inst|Selector4~19_combout $end
$var wire 1 R# inst|Selector4~20_combout $end
$var wire 1 S# inst|Selector4~21_combout $end
$var wire 1 T# inst|Selector8~0_combout $end
$var wire 1 U# inst|Selector8~1_combout $end
$var wire 1 V# inst|mLCD_DATA~18_combout $end
$var wire 1 W# inst|mLCD_DATA~19_combout $end
$var wire 1 X# inst|mLCD_DATA~20_combout $end
$var wire 1 Y# inst|WideOr5~0_combout $end
$var wire 1 Z# inst|LUT_DATA~37_combout $end
$var wire 1 [# inst|Selector4~23_combout $end
$var wire 1 \# inst|Selector4~24_combout $end
$var wire 1 ]# inst|Selector4~25_combout $end
$var wire 1 ^# inst|Selector9~0_combout $end
$var wire 1 _# inst|Selector9~1_combout $end
$var wire 1 `# inst|LUT_DATA~35_combout $end
$var wire 1 a# inst|LUT_DATA~36_combout $end
$var wire 1 b# inst|mLCD_DATA~22_combout $end
$var wire 1 c# inst|mLCD_DATA~23_combout $end
$var wire 1 d# inst|LUT_INDEX [5] $end
$var wire 1 e# inst|LUT_INDEX [4] $end
$var wire 1 f# inst|LUT_INDEX [3] $end
$var wire 1 g# inst|LUT_INDEX [2] $end
$var wire 1 h# inst|LUT_INDEX [1] $end
$var wire 1 i# inst|LUT_INDEX [0] $end
$var wire 1 j# inst|mDLY [12] $end
$var wire 1 k# inst|mDLY [11] $end
$var wire 1 l# inst|mDLY [10] $end
$var wire 1 m# inst|mDLY [9] $end
$var wire 1 n# inst|mDLY [8] $end
$var wire 1 o# inst|mDLY [7] $end
$var wire 1 p# inst|mDLY [6] $end
$var wire 1 q# inst|mDLY [5] $end
$var wire 1 r# inst|mDLY [4] $end
$var wire 1 s# inst|mDLY [3] $end
$var wire 1 t# inst|mDLY [2] $end
$var wire 1 u# inst|mDLY [1] $end
$var wire 1 v# inst|mDLY [0] $end
$var wire 1 w# inst|anim_index [4] $end
$var wire 1 x# inst|anim_index [3] $end
$var wire 1 y# inst|anim_index [2] $end
$var wire 1 z# inst|anim_index [1] $end
$var wire 1 {# inst|anim_index [0] $end
$var wire 1 |# inst|u0|Cont [4] $end
$var wire 1 }# inst|u0|Cont [3] $end
$var wire 1 ~# inst|u0|Cont [2] $end
$var wire 1 !$ inst|u0|Cont [1] $end
$var wire 1 "$ inst|u0|Cont [0] $end
$var wire 1 #$ inst|success_score [7] $end
$var wire 1 $$ inst|success_score [6] $end
$var wire 1 %$ inst|success_score [5] $end
$var wire 1 &$ inst|success_score [4] $end
$var wire 1 '$ inst|success_score [3] $end
$var wire 1 ($ inst|success_score [2] $end
$var wire 1 )$ inst|success_score [1] $end
$var wire 1 *$ inst|success_score [0] $end
$var wire 1 +$ inst|mLCD_DATA [7] $end
$var wire 1 ,$ inst|mLCD_DATA [6] $end
$var wire 1 -$ inst|mLCD_DATA [5] $end
$var wire 1 .$ inst|mLCD_DATA [4] $end
$var wire 1 /$ inst|mLCD_DATA [3] $end
$var wire 1 0$ inst|mLCD_DATA [2] $end
$var wire 1 1$ inst|mLCD_DATA [1] $end
$var wire 1 2$ inst|mLCD_DATA [0] $end
$var wire 1 3$ inst|fail_score [7] $end
$var wire 1 4$ inst|fail_score [6] $end
$var wire 1 5$ inst|fail_score [5] $end
$var wire 1 6$ inst|fail_score [4] $end
$var wire 1 7$ inst|fail_score [3] $end
$var wire 1 8$ inst|fail_score [2] $end
$var wire 1 9$ inst|fail_score [1] $end
$var wire 1 :$ inst|fail_score [0] $end
$upscope $end
$upscope $end
$enddefinitions $end
#0
$dumpvars
0!
0"
0#
0$
0,
0+
0*
0)
0(
0'
0&
0%
0-
0.
0/
00
x1
02
13
x4
15
16
17
08
09
0:
0;
0<
0=
0>
0?
0@
0A
0B
0C
0D
0E
0F
0G
0H
0I
0J
1K
0L
1M
0N
1O
0P
1Q
0R
0S
0T
0U
0V
1W
0X
0Y
0Z
1[
0\
0]
0^
1_
0`
0a
0b
1c
0d
0e
0f
1g
1h
0i
0j
0k
1l
0m
0n
0o
1p
0q
1r
1s
1t
0u
1v
0w
0x
0y
0z
1{
0|
0}
0~
0!!
0"!
1#!
0$!
0%!
0&!
0'!
0(!
1)!
0*!
0+!
0,!
0-!
0.!
0/!
10!
11!
02!
03!
04!
05!
06!
07!
18!
09!
0:!
0;!
0<!
0=!
0>!
0?!
1@!
0A!
1B!
0C!
0D!
0E!
1F!
1G!
0H!
0I!
0J!
0K!
1L!
0M!
0N!
0O!
0P!
0Q!
1R!
0S!
0T!
0U!
0V!
0W!
0X!
1Y!
0Z!
0[!
0\!
0]!
0^!
0_!
1`!
0a!
0b!
0c!
1d!
0e!
0f!
0g!
0h!
0i!
0j!
0k!
0l!
0m!
0n!
0o!
0p!
0q!
1r!
0s!
0t!
0u!
1v!
0w!
0x!
0y!
0z!
0{!
0|!
1}!
0~!
0!"
0""
0#"
1$"
0%"
0&"
0'"
1("
0)"
0*"
0+"
0,"
0-"
1."
0/"
00"
01"
02"
03"
04"
15"
06"
07"
08"
09"
1:"
0;"
0<"
0="
0>"
0?"
0@"
0A"
0B"
0C"
0D"
1E"
0F"
0G"
1H"
0I"
0J"
0K"
0L"
0M"
1N"
1O"
0P"
0Q"
0R"
1S"
0T"
0U"
1V"
0W"
0X"
0Y"
0Z"
0["
0\"
0]"
0^"
0_"
0`"
0a"
0b"
0c"
0d"
0e"
0f"
0g"
0h"
0i"
0j"
0k"
0l"
0m"
0n"
0o"
0p"
0q"
0r"
1s"
1t"
1u"
0v"
0w"
0x"
0y"
1z"
1{"
0|"
0}"
1~"
1!#
1"#
0##
0$#
0%#
0&#
1'#
1(#
1)#
0*#
1+#
0,#
0-#
0.#
0/#
10#
11#
02#
13#
04#
05#
06#
07#
18#
19#
1:#
0;#
0<#
0=#
0>#
0?#
0@#
0A#
0B#
0C#
1D#
0E#
0F#
0G#
0H#
1I#
0J#
0K#
0L#
0M#
0N#
0O#
0P#
1Q#
0R#
0S#
0T#
0U#
0V#
0W#
0X#
0Y#
0Z#
0[#
0\#
0]#
0^#
0_#
0`#
0a#
0b#
0c#
0i#
0h#
0g#
0f#
0e#
0d#
0v#
0u#
0t#
0s#
0r#
0q#
0p#
0o#
0n#
0m#
0l#
0k#
0j#
0{#
0z#
0y#
0x#
0w#
0"$
0!$
0~#
0}#
0|#
0*$
0)$
0($
0'$
0&$
0%$
0$$
0#$
02$
01$
00$
0/$
0.$
0-$
0,$
0+$
0:$
09$
08$
07$
06$
05$
04$
03$
$end
#10000
1"
1$
1D
1N
1E
01
0Q
0O
#20000
0"
0$
0D
0N
0E
11
1Q
1O
#30000
1"
1$
1D
1N
1E
01
0Q
0O
#40000
0"
0$
0D
0N
0E
11
1Q
1O
#50000
1"
1$
1D
1N
1E
01
0Q
0O
#60000
0"
0$
0D
0N
0E
11
1Q
1O
#70000
1"
1$
1D
1N
1E
01
0Q
0O
#80000
0"
0$
0D
0N
0E
11
1Q
1O
#90000
1"
1$
1D
1N
1E
01
0Q
0O
#100000
0"
0$
0D
0N
0E
11
1Q
1O
#110000
1"
1$
1D
1N
1E
01
0Q
0O
#120000
0"
0$
0D
0N
0E
11
1Q
1O
#130000
1"
1$
1D
1N
1E
01
0Q
0O
#140000
0"
0$
0D
0N
0E
11
1Q
1O
#150000
1"
1$
1D
1N
1E
01
0Q
0O
#160000
0"
0$
0D
0N
0E
11
1Q
1O
#170000
1"
1$
1D
1N
1E
01
0Q
0O
#180000
0"
0$
0D
0N
0E
11
1Q
1O
#190000
1"
1$
1D
1N
1E
01
0Q
0O
#200000
0"
0$
0D
0N
0E
11
1Q
1O
#210000
1"
1$
1D
1N
1E
01
0Q
0O
#220000
0"
0$
0D
0N
0E
11
1Q
1O
#230000
1"
1$
1D
1N
1E
01
0Q
0O
#240000
0"
0$
0D
0N
0E
11
1Q
1O
#250000
1"
1$
1D
1N
1E
01
0Q
0O
#260000
0"
0$
0D
0N
0E
11
1Q
1O
#270000
1"
1$
1D
1N
1E
01
0Q
0O
#280000
0"
0$
0D
0N
0E
11
1Q
1O
#290000
1"
1$
1D
1N
1E
01
0Q
0O
#300000
0"
0$
0D
0N
0E
11
1Q
1O
#310000
1"
1$
1D
1N
1E
01
0Q
0O
#320000
0"
0$
0D
0N
0E
11
1Q
1O
#330000
1"
1$
1D
1N
1E
01
0Q
0O
#340000
0"
0$
0D
0N
0E
11
1Q
1O
#350000
1"
1$
1D
1N
1E
01
0Q
0O
#360000
0"
0$
0D
0N
0E
11
1Q
1O
#370000
1"
1$
1D
1N
1E
01
0Q
0O
#380000
0"
0$
0D
0N
0E
11
1Q
1O
#390000
1"
1$
1D
1N
1E
01
0Q
0O
#400000
0"
0$
0D
0N
0E
11
1Q
1O
#410000
1"
1$
1D
1N
1E
01
0Q
0O
#420000
0"
0$
0D
0N
0E
11
1Q
1O
#430000
1"
1$
1D
1N
1E
01
0Q
0O
#440000
0"
0$
0D
0N
0E
11
1Q
1O
#450000
1"
1$
1D
1N
1E
01
0Q
0O
#460000
0"
0$
0D
0N
0E
11
1Q
1O
#470000
1"
1$
1D
1N
1E
01
0Q
0O
#480000
0"
0$
0D
0N
0E
11
1Q
1O
#490000
1"
1$
1D
1N
1E
01
0Q
0O
#500000
0"
0$
0D
0N
0E
11
1Q
1O
#510000
1"
1$
1D
1N
1E
01
0Q
0O
#520000
0"
0$
0D
0N
0E
11
1Q
1O
#530000
1"
1$
1D
1N
1E
01
0Q
0O
#540000
0"
0$
0D
0N
0E
11
1Q
1O
#550000
1"
1$
1D
1N
1E
01
0Q
0O
#560000
0"
0$
0D
0N
0E
11
1Q
1O
#570000
1"
1$
1D
1N
1E
01
0Q
0O
#580000
0"
0$
0D
0N
0E
11
1Q
1O
#590000
1"
1$
1D
1N
1E
01
0Q
0O
#600000
0"
0$
0D
0N
0E
11
1Q
1O
#610000
1"
1$
1D
1N
1E
01
0Q
0O
#620000
0"
0$
0D
0N
0E
11
1Q
1O
#630000
1"
1$
1D
1N
1E
01
0Q
0O
#640000
0"
0$
0D
0N
0E
11
1Q
1O
#650000
1"
1$
1D
1N
1E
01
0Q
0O
#660000
0"
0$
0D
0N
0E
11
1Q
1O
#670000
1"
1$
1D
1N
1E
01
0Q
0O
#680000
0"
0$
0D
0N
0E
11
1Q
1O
#690000
1"
1$
1D
1N
1E
01
0Q
0O
#700000
0"
0$
0D
0N
0E
11
1Q
1O
#710000
1"
1$
1D
1N
1E
01
0Q
0O
#720000
0"
0$
0D
0N
0E
11
1Q
1O
#730000
1"
1$
1D
1N
1E
01
0Q
0O
#740000
0"
0$
0D
0N
0E
11
1Q
1O
#750000
1"
1$
1D
1N
1E
01
0Q
0O
#760000
0"
0$
0D
0N
0E
11
1Q
1O
#770000
1"
1$
1D
1N
1E
01
0Q
0O
#780000
0"
0$
0D
0N
0E
11
1Q
1O
#790000
1"
1$
1D
1N
1E
01
0Q
0O
#800000
0"
0$
0D
0N
0E
11
1Q
1O
#810000
1"
1$
1D
1N
1E
01
0Q
0O
#820000
0"
0$
0D
0N
0E
11
1Q
1O
#830000
1"
1$
1D
1N
1E
01
0Q
0O
#840000
0"
0$
0D
0N
0E
11
1Q
1O
#850000
1"
1$
1D
1N
1E
01
0Q
0O
#860000
0"
0$
0D
0N
0E
11
1Q
1O
#870000
1"
1$
1D
1N
1E
01
0Q
0O
#880000
0"
0$
0D
0N
0E
11
1Q
1O
#890000
1"
1$
1D
1N
1E
01
0Q
0O
#900000
0"
0$
0D
0N
0E
11
1Q
1O
#910000
1"
1$
1D
1N
1E
01
0Q
0O
#920000
0"
0$
0D
0N
0E
11
1Q
1O
#930000
1"
1$
1D
1N
1E
01
0Q
0O
#940000
0"
0$
0D
0N
0E
11
1Q
1O
#950000
1"
1$
1D
1N
1E
01
0Q
0O
#960000
0"
0$
0D
0N
0E
11
1Q
1O
#970000
1"
1$
1D
1N
1E
01
0Q
0O
#980000
0"
0$
0D
0N
0E
11
1Q
1O
#990000
1"
1$
1D
1N
1E
01
0Q
0O
